lab2/spi.vcd
$date
     Nov 24, 2016       23:08:18
$end

$version
              SystemC 2.3.0_pub_rev_20111121-OSCI --- Nov 23 2016 00:48:04
$end

$timescale
     1 ps
$end

$scope module SystemC $end
$var wire    1  aaa  CLK       $end
$var wire    1  aab  SPI_CS       $end
$var wire    1  aac  SPI_CLK       $end
$var wire    1  aad  SPI_MOSI       $end
$var wire    1  aae  CS       $end
$var wire    1  aaf  DC       $end
$upscope $end
$enddefinitions  $end

$comment
All initial values are dumped below at time 0 sec = 0 timescale units.
$end

$dumpvars
1aaa
1aab
0aac
0aad
1aae
0aaf
$end

#5000
0aaa

#10000
1aaa
0aab
1aad
0aae

#15000
0aaa

#20000
1aaa
1aac

#25000
0aaa

#30000
1aaa
0aac
0aad

#35000
0aaa

#40000
1aaa
1aac

#45000
0aaa

#50000
1aaa
0aac
1aad

#55000
0aaa

#60000
1aaa
1aac

#65000
0aaa

#70000
1aaa
0aac
0aad

#75000
0aaa

#80000
1aaa
1aac

#85000
0aaa

#90000
1aaa
0aac
1aad

#95000
0aaa

#100000
1aaa
1aac

#105000
0aaa

#110000
1aaa
0aac
0aad

#115000
0aaa

#120000
1aaa
1aac

#125000
0aaa

#130000
1aaa
0aac
1aad

#135000
0aaa

#140000
1aaa
1aac

#145000
0aaa

#150000
1aaa
0aac

#155000
0aaa

#160000
1aaa
1aac

#165000
0aaa

#170000
1aaa
1aab
0aac
0aad

#175000
0aaa

#180000
1aaa
1aae

#185000
0aaa

#190000
1aaa
0aab
1aad
0aae
1aaf

#195000
0aaa

#200000
1aaa
1aac

#205000
0aaa

#210000
1aaa
0aac
0aad

#215000
0aaa

#220000
1aaa
1aac

#225000
0aaa

#230000
1aaa
0aac
1aad

#235000
0aaa

#240000
1aaa
1aac

#245000
0aaa

#250000
1aaa
0aac
0aad

#255000
0aaa

#260000
1aaa
1aac

#265000
0aaa

#270000
1aaa
0aac
1aad

#275000
0aaa

#280000
1aaa
1aac

#285000
0aaa

#290000
1aaa
0aac
0aad

#295000
0aaa

#300000
1aaa
1aac

#305000
0aaa

#310000
1aaa
0aac
1aad

#315000
0aaa

#320000
1aaa
1aac

#325000
0aaa

#330000
1aaa
0aac

#335000
0aaa

#340000
1aaa
1aac

#345000
0aaa

#350000
1aaa
0aac

#355000
0aaa

#360000
1aaa
1aac

#365000
0aaa

#370000
1aaa
0aac
0aad

#375000
0aaa

#380000
1aaa
1aac

#385000
0aaa

#390000
1aaa
0aac
1aad

#395000
0aaa

#400000
1aaa
1aac

#405000
0aaa

#410000
1aaa
0aac
0aad

#415000
0aaa

#420000
1aaa
1aac

#425000
0aaa

#430000
1aaa
0aac
1aad

#435000
0aaa

#440000
1aaa
1aac

#445000
0aaa

#450000
1aaa
0aac
0aad

#455000
0aaa

#460000
1aaa
1aac

#465000
0aaa

#470000
1aaa
0aac
1aad

#475000
0aaa

#480000
1aaa
1aac

#485000
0aaa

#490000
1aaa
0aac

#495000
0aaa

#500000
1aaa
1aac

#505000
0aaa

#510000
1aaa
1aab
0aac
0aad
0aaf

#515000
0aaa

#520000
1aaa
1aae

#525000
0aaa

#530000
1aaa
0aab
1aad
0aae

#535000
0aaa

#540000
1aaa
1aac

#545000
0aaa

#550000
1aaa
0aac
0aad

#555000
0aaa

#560000
1aaa
1aac

#565000
0aaa

#570000
1aaa
0aac
1aad

#575000
0aaa

#580000
1aaa
1aac

#585000
0aaa

#590000
1aaa
0aac
0aad

#595000
0aaa

#600000
1aaa
1aac

#605000
0aaa

#610000
1aaa
0aac
1aad

#615000
0aaa

#620000
1aaa
1aac

#625000
0aaa

#630000
1aaa
0aac
0aad

#635000
0aaa

#640000
1aaa
1aac

#645000
0aaa

#650000
1aaa
0aac
1aad

#655000
0aaa

#660000
1aaa
1aac

#665000
0aaa

#670000
1aaa
0aac

#675000
0aaa

#680000
1aaa
1aac

#685000
0aaa

#690000
1aaa
0aac

#695000
0aaa

#700000
1aaa
1aac

#705000
0aaa

#710000
1aaa
0aac
0aad

#715000
0aaa

#720000
1aaa
1aac

#725000
0aaa

#730000
1aaa
0aac
1aad

#735000
0aaa

#740000
1aaa
1aac

#745000
0aaa

#750000
1aaa
0aac
0aad

#755000
0aaa

#760000
1aaa
1aac

#765000
0aaa

#770000
1aaa
0aac
1aad

#775000
0aaa

#780000
1aaa
1aac

#785000
0aaa

#790000
1aaa
0aac
0aad

#795000
0aaa

#800000
1aaa
1aac

#805000
0aaa

#810000
1aaa
0aac
1aad

#815000
0aaa

#820000
1aaa
1aac

#825000
0aaa

#830000
1aaa
0aac

#835000
0aaa

#840000
1aaa
1aac

#845000
0aaa

#850000
1aaa
0aac

#855000
0aaa

#860000
1aaa
1aac

#865000
0aaa

#870000
1aaa
0aac
0aad

#875000
0aaa

#880000
1aaa
1aac

#885000
0aaa

#890000
1aaa
0aac
1aad

#895000
0aaa

#900000
1aaa
1aac

#905000
0aaa

#910000
1aaa
0aac
0aad

#915000
0aaa

#920000
1aaa
1aac

#925000
0aaa

#930000
1aaa
0aac
1aad

#935000
0aaa

#940000
1aaa
1aac

#945000
0aaa

#950000
1aaa
0aac
0aad

#955000
0aaa

#960000
1aaa
1aac

#965000
0aaa

#970000
1aaa
0aac
1aad

#975000
0aaa

#980000
1aaa
1aac

#985000
0aaa

#990000
1aaa
0aac

#995000
0aaa

#1000000
1aaa
1aac

#1005000
0aaa

#1010000
1aaa
1aab
0aac
0aad

#1015000
0aaa

#1020000
1aaa
1aae

#1025000
0aaa

#1030000
1aaa
0aab
1aad
0aae
1aaf

#1035000
0aaa

#1040000
1aaa
1aac

#1045000
0aaa

#1050000
1aaa
0aac
0aad

#1055000
0aaa

#1060000
1aaa
1aac

#1065000
0aaa

#1070000
1aaa
0aac
1aad

#1075000
0aaa

#1080000
1aaa
1aac

#1085000
0aaa

#1090000
1aaa
0aac
0aad

#1095000
0aaa

#1100000
1aaa
1aac

#1105000
0aaa

#1110000
1aaa
0aac
1aad

#1115000
0aaa

#1120000
1aaa
1aac

#1125000
0aaa

#1130000
1aaa
0aac
0aad

#1135000
0aaa

#1140000
1aaa
1aac

#1145000
0aaa

#1150000
1aaa
0aac
1aad

#1155000
0aaa

#1160000
1aaa
1aac

#1165000
0aaa

#1170000
1aaa
0aac

#1175000
0aaa

#1180000
1aaa
1aac

#1185000
0aaa

#1190000
1aaa
0aac

#1195000
0aaa

#1200000
1aaa
1aac

#1205000
0aaa

#1210000
1aaa
0aac
0aad

#1215000
0aaa

#1220000
1aaa
1aac

#1225000
0aaa

#1230000
1aaa
0aac
1aad

#1235000
0aaa

#1240000
1aaa
1aac

#1245000
0aaa

#1250000
1aaa
0aac
0aad

#1255000
0aaa

#1260000
1aaa
1aac

#1265000
0aaa

#1270000
1aaa
0aac
1aad

#1275000
0aaa

#1280000
1aaa
1aac

#1285000
0aaa

#1290000
1aaa
0aac
0aad

#1295000
0aaa

#1300000
1aaa
1aac

#1305000
0aaa

#1310000
1aaa
0aac
1aad

#1315000
0aaa

#1320000
1aaa
1aac

#1325000
0aaa

#1330000
1aaa
0aac

#1335000
0aaa

#1340000
1aaa
1aac

#1345000
0aaa

#1350000
1aaa
0aac

#1355000
0aaa

#1360000
1aaa
1aac

#1365000
0aaa

#1370000
1aaa
0aac
0aad

#1375000
0aaa

#1380000
1aaa
1aac

#1385000
0aaa

#1390000
1aaa
0aac
1aad

#1395000
0aaa

#1400000
1aaa
1aac

#1405000
0aaa

#1410000
1aaa
0aac
0aad

#1415000
0aaa

#1420000
1aaa
1aac

#1425000
0aaa

#1430000
1aaa
0aac
1aad

#1435000
0aaa

#1440000
1aaa
1aac

#1445000
0aaa

#1450000
1aaa
0aac
0aad

#1455000
0aaa

#1460000
1aaa
1aac

#1465000
0aaa

#1470000
1aaa
0aac
1aad

#1475000
0aaa

#1480000
1aaa
1aac

#1485000
0aaa

#1490000
1aaa
0aac

#1495000
0aaa

#1500000
1aaa
1aac

#1505000
0aaa

#1510000
1aaa
0aac

#1515000
0aaa

#1520000
1aaa
1aac

#1525000
0aaa

#1530000
1aaa
0aac
0aad

#1535000
0aaa

#1540000
1aaa
1aac

#1545000
0aaa

#1550000
1aaa
0aac
1aad

#1555000
0aaa

#1560000
1aaa
1aac

#1565000
0aaa

#1570000
1aaa
0aac
0aad

#1575000
0aaa

#1580000
1aaa
1aac

#1585000
0aaa

#1590000
1aaa
0aac
1aad

#1595000
0aaa

#1600000
1aaa
1aac

#1605000
0aaa

#1610000
1aaa
0aac
0aad

#1615000
0aaa

#1620000
1aaa
1aac

#1625000
0aaa

#1630000
1aaa
0aac
1aad

#1635000
0aaa

#1640000
1aaa
1aac

#1645000
0aaa

#1650000
1aaa
0aac

#1655000
0aaa

#1660000
1aaa
1aac

#1665000
0aaa

#1670000
1aaa
1aab
0aac
0aad
0aaf

#1675000
0aaa

#1680000
1aaa
1aae

